{
    "github": false,
    "gitbook": ">=2.3.0",

    "plugins" : [ "alerts", "anchors", "ribbon", "terminal", "fontsettings" ],

    "pluginsConfig": {
        "ribbon": {
            "appendFilepath": true,
            "color": "blue",
            "icon": "fa-pencil",
            "text": "Fix this page",
            "url": "https://gitlab.cern.ch/its/jira-docs/blob/master"
        },
        "theme-default": {
            "showLevel": true
        }
    },

    "links": {
        "home": "http://cern.ch/jiradocs",

        "issues": "https://its.cern.ch/jira/projects/ITS",
        "contribute": "https://gitlab.cern.ch/its/jira-docs",
        "about": false,

        "sharing": {
            "google": null,
            "facebook": null,
            "twitter": null
        }
    },
    "variables": {
      "aigitdir": "https://:@gitlab.cern.ch:8443/its",
      "aiwwwgitdir": "https://gitlab.cern.ch/its"
    }
}
